PatientID,CaseID,submit_time,pefile,hash,DepictionID,url,status,statusInfo,hasMV,mvStatus
ISPY2_0568,ISPY2_0568-L,2022-05-26 18:31:36,ISPY2_0568-L-Bandaid_ad7a7d88472b5af9c51f9f7af678e133.nii.gz,Bandaid_ad7a7d88472b5af9c51f9f7af678e133,depiction-ezHP,https://site-core.simbiosys.com:8443/depiction/ISPY2_0568-L/depiction-ezHP,Unverified,Passed automated score,False,
ISPY2_0587,ISPY2_0587-L,2022-05-26 18:31:38,ISPY2_0587-L-Bandaid_71615e4ed00e3f32e884f61382177668.nii.gz,Bandaid_71615e4ed00e3f32e884f61382177668,depiction-zMs4,https://site-core.simbiosys.com:8443/depiction/ISPY2_0587-L/depiction-zMs4,Unverified,Passed automated score,False,
ISPY2_0593,ISPY2_0593-L,2022-05-26 18:31:41,ISPY2_0593-L-13ce6aa6582944c9ebd36aa73eed72a4.nii.gz,13ce6aa6582944c9ebd36aa73eed72a4,depiction-Uy4d,https://site-core.simbiosys.com:8443/depiction/ISPY2_0593-L/depiction-Uy4d,WARNING,Air bubbles present,False,
ISPY2_0593,ISPY2_0593-R,2022-05-26 18:31:43,ISPY2_0593-R-Bandaid_e4cf6d8ae06a5645402857f9207bca3b.nii.gz,Bandaid_e4cf6d8ae06a5645402857f9207bca3b,depiction-verU,https://site-core.simbiosys.com:8443/depiction/ISPY2_0593-R/depiction-verU,Unverified,Passed automated score,False,
ISPY2_0603,ISPY2_0603-L,2022-05-26 18:31:46,ISPY2_0603-L-d47190eba2a53b996aa4057a9101ec56.nii.gz,d47190eba2a53b996aa4057a9101ec56,depiction-DSAn,https://site-core.simbiosys.com:8443/depiction/ISPY2_0603-L/depiction-DSAn,WARNING,Air bubbles present,False,
ISPY2_0609,ISPY2_0609-R,2022-05-26 18:31:48,ISPY2_0609-R-41fd2c06fd06223214d7bd878a6acc5a.nii.gz,41fd2c06fd06223214d7bd878a6acc5a,depiction-ztgA,https://site-core.simbiosys.com:8443/depiction/ISPY2_0609-R/depiction-ztgA,Unverified,Passed automated score,False,
ISPY2_0693,ISPY2_0693-R,2022-05-26 18:31:50,ISPY2_0693-R-10f378ac03c7a21e5d1223d81f24011d.nii.gz,10f378ac03c7a21e5d1223d81f24011d,depiction-PcJd,https://site-core.simbiosys.com:8443/depiction/ISPY2_0693-R/depiction-PcJd,WARNING,Chest bubbles present,False,
ISPY2_0696,ISPY2_0696-R,2022-05-26 18:31:52,ISPY2_0696-R-63e5995f37f4666696879f7373bdbc86.nii.gz,63e5995f37f4666696879f7373bdbc86,depiction-gfsJ,https://site-core.simbiosys.com:8443/depiction/ISPY2_0696-R/depiction-gfsJ,Unverified,Passed automated score,False,
ISPY2_0700,ISPY2_0700-R,2022-05-26 18:31:54,ISPY2_0700-R-e35dc696588611e1cb133eb0ea03f9fe.nii.gz,e35dc696588611e1cb133eb0ea03f9fe,depiction-44HE,https://site-core.simbiosys.com:8443/depiction/ISPY2_0700-R/depiction-44HE,Unverified,Passed automated score,False,
ISPY2_0704,ISPY2_0704-L,2022-05-26 18:31:56,ISPY2_0704-L-65445c533b40de9a028ae1a53ba5ab05.nii.gz,65445c533b40de9a028ae1a53ba5ab05,depiction-KmSc,https://site-core.simbiosys.com:8443/depiction/ISPY2_0704-L/depiction-KmSc,Unverified,Passed automated score,False,
ISPY2_0741,ISPY2_0741-L,2022-05-26 18:31:58,ISPY2_0741-L-69079584cf84a2028908c4ff8be4fd93.nii.gz,69079584cf84a2028908c4ff8be4fd93,depiction-RxZp,https://site-core.simbiosys.com:8443/depiction/ISPY2_0741-L/depiction-RxZp,Unverified,Passed automated score,False,
ISPY2_0752,ISPY2_0752-L,2022-05-26 18:32:01,ISPY2_0752-L-Bandaid_2d240e2b1ae1258da4af1278e0583f9d.nii.gz,Bandaid_2d240e2b1ae1258da4af1278e0583f9d,depiction-Ams9,https://site-core.simbiosys.com:8443/depiction/ISPY2_0752-L/depiction-Ams9,WARNING,Chest bubbles present,False,
ISPY2_0756,ISPY2_0756-R,2022-05-26 18:32:03,ISPY2_0756-R-Bandaid_8998dcc87d6617a2a7fc4130729b055e.nii.gz,Bandaid_8998dcc87d6617a2a7fc4130729b055e,depiction-GNa7,https://site-core.simbiosys.com:8443/depiction/ISPY2_0756-R/depiction-GNa7,Unverified,Passed automated score,False,
ISPY2_0760,ISPY2_0760-R,2022-05-26 18:32:05,ISPY2_0760-R-69df763ff51f29e820e51f8ad94df68c.nii.gz,69df763ff51f29e820e51f8ad94df68c,depiction-ZgE5,https://site-core.simbiosys.com:8443/depiction/ISPY2_0760-R/depiction-ZgE5,Unverified,Passed automated score,False,
ISPY2_0783,ISPY2_0783-R,2022-05-26 18:32:08,ISPY2_0783-R-375f034ab76e1cf04e317bc9d0845d94.nii.gz,375f034ab76e1cf04e317bc9d0845d94,depiction-5N5x,https://site-core.simbiosys.com:8443/depiction/ISPY2_0783-R/depiction-5N5x,Unverified,Passed automated score,False,
ISPY2_0822,ISPY2_0822-L,2022-05-26 18:32:11,ISPY2_0822-L-Bandaid_fcb79df9d96be07f939aae56c540562c.nii.gz,Bandaid_fcb79df9d96be07f939aae56c540562c,depiction-FbfJ,https://site-core.simbiosys.com:8443/depiction/ISPY2_0822-L/depiction-FbfJ,Unverified,Passed automated score,False,
ISPY2_0829,ISPY2_0829-R,2022-05-26 18:32:14,ISPY2_0829-R-65cabaabf6a1550c895b507f6b9ac1b5.nii.gz,65cabaabf6a1550c895b507f6b9ac1b5,depiction-QMfs,https://site-core.simbiosys.com:8443/depiction/ISPY2_0829-R/depiction-QMfs,Unverified,Passed automated score,False,
ISPY2_0845,ISPY2_0845-L,2022-05-26 18:32:16,ISPY2_0845-L-1489a86d5e0e1988ba60bc5484e6d3e5.nii.gz,1489a86d5e0e1988ba60bc5484e6d3e5,depiction-L39m,https://site-core.simbiosys.com:8443/depiction/ISPY2_0845-L/depiction-L39m,Unverified,Passed automated score,False,
ISPY2_0851,ISPY2_0851-R,2022-05-26 18:32:19,ISPY2_0851-R-da51968edc5f61ad6afcf143fb852908.nii.gz,da51968edc5f61ad6afcf143fb852908,depiction-Ywmz,https://site-core.simbiosys.com:8443/depiction/ISPY2_0851-R/depiction-Ywmz,Unverified,Passed automated score,False,
ISPY2_0858,ISPY2_0858-L,2022-05-26 18:32:21,ISPY2_0858-L-2a304e059f584722a4509543af94390e.nii.gz,2a304e059f584722a4509543af94390e,depiction-TLTX,https://site-core.simbiosys.com:8443/depiction/ISPY2_0858-L/depiction-TLTX,WARNING,Air bubbles present,False,
ISPY2_0859,ISPY2_0859-L,2022-05-26 18:32:23,ISPY2_0859-L-b28b73993d7fedf7581e33a7bc560883.nii.gz,b28b73993d7fedf7581e33a7bc560883,depiction-4T7k,https://site-core.simbiosys.com:8443/depiction/ISPY2_0859-L/depiction-4T7k,Unverified,Passed automated score,False,
ISPY2_0889,ISPY2_0889-R,2022-05-26 18:32:25,ISPY2_0889-R-Bandaid_9dd10f286f66cb6e4e743a9b3833e8eb.nii.gz,Bandaid_9dd10f286f66cb6e4e743a9b3833e8eb,depiction-Db1Y,https://site-core.simbiosys.com:8443/depiction/ISPY2_0889-R/depiction-Db1Y,Unverified,Passed automated score,False,
ISPY2_0890,ISPY2_0890-R,2022-05-26 18:32:27,ISPY2_0890-R-4816c61776313f44a4da2177cd60fe55.nii.gz,4816c61776313f44a4da2177cd60fe55,depiction-PzNx,https://site-core.simbiosys.com:8443/depiction/ISPY2_0890-R/depiction-PzNx,Unverified,Passed automated score,False,
