caseID,depictionID,mvMap,useMV,lagTime,endTime,regimen,phenotyper
ISPY2_0261-R,depiction-WACH,mv-WACH-mvneg6,1,1382400,12268800,ISPY2_wT-ddAC,TreeNGF
ISPY2_0263-R,depiction-rv6s,mv-rv6s-mvneg6,1,1123200,14860800,ISPY2_wT-ddAC,TreeNGF
ISPY2_0275-L,depiction-6AzB,mv-6AzB-mvneg6,1,1036800,14515200,ISPY2_wT-ddAC,TreeNGF
ISPY2_0280-R,depiction-6BFh,mv-6BFh-mvneg6,1,1468800,12096000,ISPY2_wT-ddAC,TreeNGF
ISPY2_0283-R,depiction-DfL8,mv-DfL8-mvneg6,1,432000,12096000,ISPY2_wT-ddAC,TreeNGF
ISPY2_0332-L,depiction-6B52,mv-6B52-mvneg6,1,2592000,18489600,ISPY2_wT-ddAC,TreeNGF
ISPY2_0353-R,depiction-Ya44,mv-Ya44-mvneg6,1,1382400,12960000,ISPY2_wT-ddAC,TreeNGF
ISPY2_0368-L,depiction-tCQN,mv-tCQN-mvneg6,1,1555200,12873600,ISPY2_wT-ddAC,TreeNGF
ISPY2_0379-R,depiction-QfWe,mv-QfWe-mvneg6,1,2419200,12614400,ISPY2_wT-ddAC,TreeNGF
ISPY2_0384-L,depiction-QRwv,mv-QRwv-mvneg6,1,2592000,13564800,ISPY2_wT-ddAC,TreeNGF
ISPY2_0395-R,depiction-drxZ,mv-drxZ-mvneg6,1,2073600,12268800,ISPY2_wT-ddAC,TreeNGF
ISPY2_0427-L,depiction-sQXm,mv-sQXm-mvneg6,1,1728000,12268800,ISPY2_wT-ddAC,TreeNGF
ISPY2_0429-L,depiction-9CnD,mv-9CnD-mvneg6,1,1123200,13392000,ISPY2_wT-ddAC,TreeNGF
ISPY2_0436-L,depiction-B9NM,mv-B9NM-mvneg6,1,1900800,12096000,ISPY2_wT-ddAC,TreeNGF
ISPY2_0438-L,depiction-RpAF,mv-RpAF-mvneg6,1,2419200,13392000,ISPY2_wT-ddAC,TreeNGF
ISPY2_0444-L,depiction-a4Sf,mv-a4Sf-mvneg6,1,1296000,12096000,ISPY2_wT-ddAC,TreeNGF
ISPY2_0445-R,depiction-XCcd,mv-XCcd-mvneg6,1,1728000,13219200,ISPY2_wT-ddAC,TreeNGF
ISPY2_0467-L,depiction-XMvn,mv-XMvn-mvneg6,1,1814400,12096000,ISPY2_wT-ddAC,TreeNGF
ISPY2_0488-R,depiction-GaGY,mv-GaGY-mvneg6,1,1209600,13305600,ISPY2_wT-ddAC,TreeNGF
ISPY2_0521-R,depiction-UmQC,mv-UmQC-mvneg6,1,2505600,12355200,ISPY2_wT-ddAC,TreeNGF
ISPY2_0533-R,depiction-a2FN,mv-a2FN-mvneg6,1,1468800,12096000,ISPY2_wT-ddAC,TreeNGF
ISPY2_0564-L,depiction-AYLC,mv-AYLC-mvneg6,1,1468800,12614400,ISPY2_wT-ddAC,TreeNGF
ISPY2_0568-L,depiction-ezHP,mv-ezHP-mvneg6,1,1987200,15465600,ISPY2_wT-ddAC,TreeNGF
ISPY2_0587-L,depiction-zMs4,mv-zMs4-mvneg6,1,2160000,16848000,ISPY2_wT-ddAC,TreeNGF
ISPY2_0593-L,depiction-Bv1C,mv-Bv1C-mvneg6,1,1468800,12787200,ISPY2_wT-ddAC,TreeNGF
ISPY2_0593-R,depiction-verU,mv-verU-mvneg6,1,1468800,12787200,ISPY2_wT-ddAC,TreeNGF
ISPY2_0603-L,depiction-vymS,mv-vymS-mvneg6,1,2419200,12355200,ISPY2_wT-ddAC,TreeNGF
ISPY2_0609-R,depiction-ztgA,mv-ztgA-mvneg6,1,2592000,13996800,ISPY2_wT-ddAC,TreeNGF
ISPY2_0693-R,depiction-BH3w,mv-BH3w-mvneg6,1,1900800,12268800,ISPY2_wT-ddAC,TreeNGF
ISPY2_0696-R,depiction-gfsJ,mv-gfsJ-mvneg6,1,864000,12268800,ISPY2_wT-ddAC,TreeNGF
ISPY2_0700-R,depiction-XS53,mv-XS53-mvneg6,1,2592000,17971200,ISPY2_wT-ddAC,TreeNGF
ISPY2_0704-L,depiction-KmSc,mv-KmSc-mvneg6,1,2592000,12096000,ISPY2_wT-ddAC,TreeNGF
ISPY2_0741-L,depiction-RxZp,mv-RxZp-mvneg6,1,2505600,12096000,ISPY2_wT-ddAC,TreeNGF
ISPY2_0752-L,depiction-pWNS,mv-pWNS-mvneg6,1,2592000,13996800,ISPY2_wT-ddAC,TreeNGF
ISPY2_0756-R,depiction-stmW,mv-stmW-mvneg6,1,2160000,14428800,ISPY2_wT-ddAC,TreeNGF
ISPY2_0760-R,depiction-XK8N,mv-XK8N-mvneg6,1,2419200,12355200,ISPY2_wT-ddAC,TreeNGF
ISPY2_0783-R,depiction-5N5x,mv-5N5x-mvneg6,1,1641600,13910400,ISPY2_wT-ddAC,TreeNGF
ISPY2_0822-L,depiction-FbfJ,mv-FbfJ-mvneg6,1,691200,13996800,ISPY2_wT-ddAC,TreeNGF
ISPY2_0829-R,depiction-QMfs,mv-QMfs-mvneg6,1,1468800,12096000,ISPY2_wT-ddAC,TreeNGF
ISPY2_0845-L,depiction-L39m,mv-L39m-mvneg6,1,2419200,12355200,ISPY2_wT-ddAC,TreeNGF
ISPY2_0851-R,depiction-Ywmz,mv-Ywmz-mvneg6,1,1468800,13996800,ISPY2_wT-ddAC,TreeNGF
ISPY2_0858-L,depiction-5KCv,mv-5KCv-mvneg6,1,950400,12614400,ISPY2_wT-ddAC,TreeNGF
ISPY2_0859-L,depiction-4T7k,mv-4T7k-mvneg6,1,1555200,12096000,ISPY2_wT-ddAC,TreeNGF
ISPY2_0889-R,depiction-Db1Y,mv-Db1Y-mvneg6,1,1900800,12268800,ISPY2_wT-ddAC,TreeNGF
ISPY2_0890-R,depiction-7sgr,mv-7sgr-mvneg6,1,1900800,15120000,ISPY2_wT-ddAC,TreeNGF
